…
``` r
library(p8105.datasets)
data("instacart")
```

How many aisles are there, and which aisles are the most items ordered
from?

``` r
instacart_df = count(instacart, aisle) %>% 
  mutate(aisle_ranking = min_rank(desc(n)))
instacart_df 
```

    ## # A tibble: 134 × 3
    ##    aisle                      n aisle_ranking
    ##    <chr>                  <int>         <int>
    ##  1 air fresheners candles  1067           109
    ##  2 asian foods             7007            53
    ##  3 baby accessories         306           132
    ##  4 baby bath body care      328           131
    ##  5 baby food formula      13198            26
    ##  6 bakery desserts         1501            99
    ##  7 baking ingredients     13088            27
    ##  8 baking supplies decor   1094           106
    ##  9 beauty                   287           134
    ## 10 beers coolers           1839            90
    ## # … with 124 more rows
…
``` r
brfss_cleaned_df = brfss_smart2010 %>% 
  janitor::clean_names() %>% 
  select(-locationabbr) %>% 
  separate(locationdesc, into = c("state", "place"), sep = " - ") %>% 
  filter(topic == "Overall Health") %>% 
  filter(response == "Excellent" | response == "Very good" | response == "Good" | response == "Fair" | response == "Poor") %>%
  mutate(response = factor(response, levels = c("Poor", "Fair", "Good", "Very good", "Excellent"))) %>% 
  view()

brfss_cleaned_df  
```

    ## # A tibble: 10,625 × 23
    ##     year state place            class topic question response sample_size data_value
    ##    <int> <chr> <chr>            <chr> <chr> <chr>    <fct>          <int>      <dbl>
    ##  1  2010 AL    Jefferson County Heal… Over… How is … Excelle…          94       18.9
    ##  2  2010 AL    Jefferson County Heal… Over… How is … Very go…         148       30  
    ##  3  2010 AL    Jefferson County Heal… Over… How is … Good             208       33.1
    ##  4  2010 AL    Jefferson County Heal… Over… How is … Fair             107       12.5
    ##  5  2010 AL    Jefferson County Heal… Over… How is … Poor              45        5.5
    ##  6  2010 AL    Mobile County    Heal… Over… How is … Excelle…          91       15.6
    ##  7  2010 AL    Mobile County    Heal… Over… How is … Very go…         177       31.3
    ##  8  2010 AL    Mobile County    Heal… Over… How is … Good             224       31.2
    ##  9  2010 AL    Mobile County    Heal… Over… How is … Fair             120       15.5
    ## 10  2010 AL    Mobile County    Heal… Over… How is … Poor              66        6.4
    ## # … with 10,615 more rows, and 14 more variables: confidence_limit_low <dbl>,
    ## #   confidence_limit_high <dbl>, display_order <int>, data_value_unit <chr>,
    ## #   data_value_type <chr>, data_value_footnote_symbol <chr>,
    ## #   data_value_footnote <chr>, data_source <chr>, class_id <chr>,
    ## #   topic_id <chr>, location_id <chr>, question_id <chr>, respid <chr>,
    ## #   geo_location <chr>
…
``` r
excellent_df = filter(brfss_cleaned_df, response == "Excellent") %>% 
  select(year, state, place, data_value) %>% 
  group_by(year, state) %>% 
  summarise(mean_dv = mean(data_value)) %>% 
  view()
```

    ## `summarise()` has grouped output by 'year'. You can override using the `.groups` argument.

``` r
excellent_df
```

    ## # A tibble: 443 × 3
    ## # Groups:   year [9]
    ##     year state mean_dv
    ##    <int> <chr>   <dbl>
    ##  1  2002 AK       27.9
    ##  2  2002 AL       18.5
    ##  3  2002 AR       24.1
    ##  4  2002 AZ       24.1
    ##  5  2002 CA       22.7
    ##  6  2002 CO       23.1
    ##  7  2002 CT       29.1
    ##  8  2002 DC       29.3
    ##  9  2002 DE       20.9
    ## 10  2002 FL       25.7
    ## # … with 433 more rows
…
Make a two-panel plot showing, for the years 2006, and 2010,
distribution of data\_value for responses (“Poor” to “Excellent”) among
locations in NY State.

``` r
two_panel_plot = brfss_cleaned_df %>% 
  filter(state == "NY") %>% 
  filter(year == 2006 | year == 2010) %>% 
  select(year, state, place, response, data_value) %>% 
  view()

two_panel_plot
```

    ## # A tibble: 75 × 5
    ##     year state place        response  data_value
    ##    <int> <chr> <chr>        <fct>          <dbl>
    ##  1  2010 NY    Bronx County Excellent       17.6
    ##  2  2010 NY    Bronx County Very good       25.9
    ##  3  2010 NY    Bronx County Good            35.1
    ##  4  2010 NY    Bronx County Fair            16.7
    ##  5  2010 NY    Bronx County Poor             4.7
    ##  6  2010 NY    Erie County  Excellent       17.2
    ##  7  2010 NY    Erie County  Very good       37.9
    ##  8  2010 NY    Erie County  Good            29.6
    ##  9  2010 NY    Erie County  Fair            12.7
    ## 10  2010 NY    Erie County  Poor             2.5
    ## # … with 65 more rows
…
    ## ── Column specification ────────────────────────────────────────────────────────
    ## Delimiter: ","
    ## chr    (1): day
    ## dbl (1442): week, day_id, activity.1, activity.2, activity.3, activity.4, ac...

    ## 
    ## ℹ Use `spec()` to retrieve the full column specification for this data.
    ## ℹ Specify the column types or set `show_col_types = FALSE` to quiet this message.

``` r
accel_df  
```

    ## # A tibble: 50,400 × 5
    ##    week  day    minutes activity weekday_vs_weekend
    ##    <chr> <fct>    <dbl>    <dbl> <chr>             
    ##  1 1     Monday       1        1 weekday           
    ##  2 1     Monday       2        1 weekday           
    ##  3 1     Monday       3        1 weekday           
    ##  4 1     Monday       4        1 weekday           
    ##  5 1     Monday       5        1 weekday           
    ##  6 1     Monday       6        1 weekday           
    ##  7 1     Monday       7        1 weekday           
    ##  8 1     Monday       8        1 weekday           
    ##  9 1     Monday       9        1 weekday           
    ## 10 1     Monday      10        1 weekday           
    ## # … with 50,390 more rows
…
